#LitePoint Test Flow Version 1.5.1 (2011-01-12)

RunMode = 0
RepeatTimes = 1
ExitWhenDone = 0
ShowFailInfo = 0
PrecisionDigitMode = 0
RetryMode = 0
EnableFlowCheckWarning = 0
WIFI_11AC:
	CONNECT_IQ_TESTER ALWAYS_RUN
		#:run_mode = ALWAYS_RUN
		#Input Parameters:
		>APP_ID [Integer]  = 1 
		>APT_ENABLE [Integer]  = 0 
		>DH_ENABLE [Integer]  = 0 
		>DH_OBTAIN_CONTROL_TIMEOUT_MS [Integer]  = 300001 
		>DH_PROBE_TIME_MS [Integer]  = 100 
		>DH_TOKEN_ID [Integer]  = 1 
		>IQTESTER_RECONNECT [Integer]  = 0 
		>IQTESTER_TYPE [Integer]  = 1 
		>REQUEST_RESOURCE_TIMEOUT_SEC [Integer]  = 30 
		>VSA_PORT [Integer]  = 2 
		>VSG_PORT [Integer]  = 2 
		>IQTESTER_MODULE_01 [String]  = 192.168.100.254:A 
		>IQTESTER_MODULE_02 [String]  =  
		>IQTESTER_MODULE_03 [String]  =  
		>IQTESTER_MODULE_04 [String]  =  
		>IQTESTER_MODULE_05 [String]  =  
		>IQTESTER_MODULE_06 [String]  =  
		>IQTESTER_MODULE_07 [String]  =  
		>IQTESTER_MODULE_08 [String]  =  
		>OPTION_STRING [String]  =  
		#Return Values:
		<ERROR_MESSAGE [String]  = <,>
		<IQAPI_VERSION [String]  = <,>
		<IQLITE_VERSION [String]  = <,>
		<IQMEASURE_VERSION [String]  = <,>
		<IQTESTER_INFO [String]  = <,>
		<IQTESTER_SERIAL_NUM_01 [String]  = <,>
		<IQTESTER_SERIAL_NUM_02 [String]  = <,>
		<IQTESTER_SERIAL_NUM_03 [String]  = <,>
		<IQTESTER_SERIAL_NUM_04 [String]  = <,>
		<IQV_ANALYSIS_VERSION [String]  = <,>
		<IQV_MW_VERSION [String]  = <,>
		<IQ_MAX_SIGNAL_VERSION [String]  = <,>
		<IQ_NXN_SIGNAL_VERSION [String]  = <,>
		<IQ_NXN_VERSION [String]  = <,>
		<TEST_MANAGER_VERSION [String]  = <,>
	DEFAULT_GLOBAL_SETTINGS ALWAYS_RUN
		#:run_mode = ALWAYS_RUN
		#Input Parameters:
		>ANALYSIS_11AC_AMPLITUDE_TRACKING [Integer]  = 0 
		>ANALYSIS_11AC_DECODE_PSDU [Integer]  = 0 
		>ANALYSIS_11AC_FREQUENCY_CORRELATION [Integer]  = 2 
		>ANALYSIS_11AC_FULL_PACKET_CHANNEL_EST [Integer]  = 0 
		>ANALYSIS_11AC_MASK_ACCORDING_CBW [Integer]  = 0 
		>ANALYSIS_11AC_PHASE_CORR [Integer]  = 1 
		>ANALYSIS_11AC_SYM_TIMING_CORR [Integer]  = 1 
		>ANALYSIS_11AG_AMPL_TRACK [Integer]  = 1 
		>ANALYSIS_11AG_CH_ESTIMATE [Integer]  = 1 
		>ANALYSIS_11AG_FREQ_SYNC [Integer]  = 2 
		>ANALYSIS_11AG_PH_CORR_MODE [Integer]  = 2 
		>ANALYSIS_11AG_SYM_TIM_CORR [Integer]  = 2 
		>ANALYSIS_11AX_MASK_ACCORDING_CBW [Integer]  = 0 
		>ANALYSIS_11B_DC_REMOVE_FLAG [Integer]  = 0 
		>ANALYSIS_11B_EQ_TAPS [Integer]  = 7 
		>ANALYSIS_11B_FIXED_01_DATA_SEQUENCE [Integer]  = 0 
		>ANALYSIS_11B_METHOD_11B [Integer]  = 1 
		>ANALYSIS_11N_AMPLITUDE_TRACKING [Integer]  = 0 
		>ANALYSIS_11N_DECODE_PSDU [Integer]  = 0 
		>ANALYSIS_11N_FREQUENCY_CORRELATION [Integer]  = 2 
		>ANALYSIS_11N_FULL_PACKET_CHANNEL_EST [Integer]  = 0 
		>ANALYSIS_11N_PHASE_CORR [Integer]  = 1 
		>ANALYSIS_11N_SYM_TIMING_CORR [Integer]  = 1 
		>BURN_MAX_ITERATIONS_FOR_ERROR_LIMIT [Integer]  = 4 
		>CLOSE_LOOP_VOLTAGE_TEST [Integer]  = 0 
		>DUT_KEEP_TRANSMIT [Integer]  = 1 
		>ENABLE_FAST_PER [Integer]  = 0 
		>EVM_CAPTURE_TIME_11AC_HT_GF_US [Integer]  = 123 
		>EVM_CAPTURE_TIME_11AC_HT_MF_US [Integer]  = 123 
		>EVM_CAPTURE_TIME_11AC_NON_HT_US [Integer]  = 123 
		>EVM_CAPTURE_TIME_11AC_VHT_US [Integer]  = 123 
		>EVM_CAPTURE_TIME_11AG_US [Integer]  = 95 
		>EVM_CAPTURE_TIME_11B_L_US [Integer]  = 286 
		>EVM_CAPTURE_TIME_11B_S_US [Integer]  = 190 
		>EVM_CAPTURE_TIME_11N_GREENFIELD_US [Integer]  = 115 
		>EVM_CAPTURE_TIME_11N_MIXED_US [Integer]  = 123 
		>EVM_PRE_TRIG_TIME_US [Integer]  = 3 
		>EVM_SYMBOL_NUM [Integer]  = 18 
		>IQ_P_TO_A_11AG_12M [Integer]  = 10 
		>IQ_P_TO_A_11AG_18M [Integer]  = 10 
		>IQ_P_TO_A_11AG_24M [Integer]  = 10 
		>IQ_P_TO_A_11AG_36M [Integer]  = 10 
		>IQ_P_TO_A_11AG_48M [Integer]  = 10 
		>IQ_P_TO_A_11AG_54M [Integer]  = 10 
		>IQ_P_TO_A_11AG_6M [Integer]  = 10 
		>IQ_P_TO_A_11AG_9M [Integer]  = 10 
		>IQ_P_TO_A_11B_11M [Integer]  = 2 
		>IQ_P_TO_A_11B_1M [Integer]  = 2 
		>IQ_P_TO_A_11B_2M [Integer]  = 2 
		>IQ_P_TO_A_11B_5_5M [Integer]  = 2 
		>IQ_P_TO_A_11B_CH14 [Integer]  = 5 
		>IQ_P_TO_A_11N_MCS0 [Integer]  = 10 
		>IQ_P_TO_A_11N_MCS1 [Integer]  = 10 
		>IQ_P_TO_A_11N_MCS2 [Integer]  = 10 
		>IQ_P_TO_A_11N_MCS3 [Integer]  = 10 
		>IQ_P_TO_A_11N_MCS4 [Integer]  = 10 
		>IQ_P_TO_A_11N_MCS5 [Integer]  = 10 
		>IQ_P_TO_A_11N_MCS6 [Integer]  = 10 
		>IQ_P_TO_A_11N_MCS7 [Integer]  = 10 
		>LOAD_INTERNAL_WAVEFORM [Integer]  = 0 
		>MASK_DSSS_SAMPLE_INTERVAL_US [Integer]  = 286 
		>MASK_OFDM_SAMPLE_INTERVAL_US [Integer]  = 95 
		>MAX_PACKET_LENGTH [Integer]  = 2300 
		>MEAS_XTAL_CAL [Integer]  = 1 
		>PER_FRAME_COUNT_11AC [Integer]  = 500 
		>PER_FRAME_COUNT_11AG [Integer]  = 500 
		>PER_FRAME_COUNT_11B [Integer]  = 500 
		>PER_FRAME_COUNT_11N [Integer]  = 500 
		>PER_VSG_TIMEOUT_SEC [Integer]  = 20 
		>PM_DSSS_SAMPLE_INTERVAL_US [Integer]  = 100 
		>PM_IF_FREQ_SHIFT_MHZ [Integer]  = 0 
		>PM_OFDM_SAMPLE_INTERVAL_US [Integer]  = 20 
		>RESET_TEST_ITEM_DURING_RETRY [Integer]  = 0 
		>RX_CAL_CALC_LNA_INDEX_FOR_MID_LNAGAIN_CAL [Integer]  = 1 
		>RX_CAL_LNA_INDEX [Integer]  = 1 
		>RX_CAL_LOWERP_BOUNDARY [Integer]  = 9 
		>RX_CAL_MID_GAIN_DEFAULT_VALUE [Integer]  = 10 
		>RX_CAL_NOS [Integer]  = 1024 
		>RX_CAL_NUM_OF_LNA_GAINS [Integer]  = 6 
		>RX_CAL_NUM_RF_FLATNESS_DEFAULT_VALUE [Integer]  = 3 
		>RX_CAL_NUM_RSSI_FLATNESS_DEFAULT_VALUE [Integer]  = 3 
		>RX_CAL_PGC1_FOR_AB_CAL [Integer]  = 0 
		>RX_CAL_PGC1_FOR_LNAGAIN_CAL_GAIN_0 [Integer]  = 0 
		>RX_CAL_PGC1_FOR_LNAGAIN_CAL_GAIN_1 [Integer]  = 4 
		>RX_CAL_PGC1_FOR_LNAGAIN_CAL_GAIN_2 [Integer]  = 10 
		>RX_CAL_PGC1_FOR_LNAGAIN_CAL_GAIN_3 [Integer]  = 12 
		>RX_CAL_PGC1_FOR_LNAGAIN_CAL_GAIN_4 [Integer]  = 20 
		>RX_CAL_PGC1_FOR_LNAGAIN_CAL_GAIN_5 [Integer]  = 20 
		>RX_CAL_PGC1_FOR_LNAGAIN_CAL_GAIN_6 [Integer]  = 20 
		>RX_CAL_PGC1_FOR_LNAGAIN_CAL_GAIN_7 [Integer]  = 20 
		>RX_CAL_PGC1_FOR_MID_LNAGAIN_CAL [Integer]  = 4 
		>RX_CAL_PGC2_FOR_AB_CAL [Integer]  = 0 
		>RX_CAL_PGC2_FOR_LNAGAIN_CAL [Integer]  = 0 
		>RX_CAL_PGC2_FOR_MID_LNAGAIN_CAL [Integer]  = 0 
		>RX_CAL_PGC3_FOR_AB_CAL [Integer]  = 0 
		>RX_CAL_PGC3_FOR_LNAGAIN_CAL [Integer]  = 0 
		>RX_CAL_PGC3_FOR_MID_LNAGAIN_CAL [Integer]  = 0 
		>RX_CAL_RF_FLATNESSS_DELTA_POINT_DEFAULT_VALUE_1 [Integer]  = 0 
		>RX_CAL_RF_FLATNESSS_DELTA_POINT_DEFAULT_VALUE_2 [Integer]  = 0 
		>RX_CAL_RF_FLATNESSS_DELTA_POINT_DEFAULT_VALUE_3 [Integer]  = 0 
		>RX_CAL_RF_FLATNESSS_DELTA_POINT_DEFAULT_VALUE_4 [Integer]  = 0 
		>RX_CAL_RF_FLATNESSS_DELTA_POINT_DEFAULT_VALUE_5 [Integer]  = 0 
		>RX_CAL_RF_FLATNESSS_DELTA_POINT_DEFAULT_VALUE_6 [Integer]  = 0 
		>RX_CAL_RF_FLATNESSS_DELTA_POINT_DEFAULT_VALUE_7 [Integer]  = 0 
		>RX_CAL_RSSI_FLATNESSS_DELTA_POINT_DEFAULT_VALUE_1 [Integer]  = 0 
		>RX_CAL_RSSI_FLATNESSS_DELTA_POINT_DEFAULT_VALUE_2 [Integer]  = 0 
		>RX_CAL_RSSI_FLATNESSS_DELTA_POINT_DEFAULT_VALUE_3 [Integer]  = 0 
		>RX_CAL_RSSI_FLATNESS_FREQ_POINTS_DEFAULT_VALUE_1 [Integer]  = 4900 
		>RX_CAL_RSSI_FLATNESS_FREQ_POINTS_DEFAULT_VALUE_2 [Integer]  = 5400 
		>RX_CAL_RSSI_FLATNESS_FREQ_POINTS_DEFAULT_VALUE_3 [Integer]  = 5900 
		>RX_CAL_SUB_BANDS_CROSS_POINTS_DEFAULT_VALUE_1 [Integer]  = 4900 
		>RX_CAL_SUB_BANDS_CROSS_POINTS_DEFAULT_VALUE_2 [Integer]  = 4900 
		>RX_CAL_SUB_BANDS_CROSS_POINTS_DEFAULT_VALUE_3 [Integer]  = 4950 
		>RX_CAL_SUB_BANDS_CROSS_POINTS_DEFAULT_VALUE_4 [Integer]  = 5150 
		>RX_CAL_SUB_BANDS_CROSS_POINTS_DEFAULT_VALUE_5 [Integer]  = 5350 
		>RX_CAL_SUB_BANDS_CROSS_POINTS_DEFAULT_VALUE_6 [Integer]  = 5600 
		>RX_CAL_SUB_BANDS_CROSS_POINTS_DEFAULT_VALUE_7 [Integer]  = 5850 
		>RX_CAL_SUB_BAND_LNA_INDEX [Integer]  = 1 
		>RX_CAL_SUB_BAND_PGC1 [Integer]  = 4 
		>RX_CAL_SUB_BAND_PGC2 [Integer]  = 0 
		>RX_CAL_SUB_BAND_PGC3 [Integer]  = 0 
		>RX_CAL_SUB_BAND_POWER_REF [Integer]  = -45 
		>RX_CAL_UPPERP_BOUNDARY [Integer]  = 0 
		>SIFS_TIME [Integer]  = 25 
		>SPECTRUM_DSSS_SAMPLE_INTERVAL_US [Integer]  = 286 
		>SPECTRUM_OFDM_SAMPLE_INTERVAL_US [Integer]  = 95 
		>TX_CALIBRATION_SATURATION_INDEX_JUMP [Integer]  = 3 
		>TX_CALIBRATION_TSSI_SATURATION [Integer]  = 505 
		>TX_CAL_GAIN_TABLE_CALIBRATION_ENABLE [Integer]  = 1 
		>TX_CAL_S2D_CAL_TSSI_HIGH [Integer]  = 15360 
		>TX_CAL_S2D_CAL_TSSI_LOW [Integer]  = 1920 
		>TX_CAL_VEC_NUM_OF_PACKET_PER_INDEX_FIRST_CAPRURE [Integer]  = 1 
		>TX_CAL_VEC_NUM_OF_PACKET_PER_INDEX_SECOND_CAPRURE [Integer]  = 1 
		>VSA_SAVE_CAPTURE_ALWAYS [Integer]  = 0 
		>VSA_SAVE_CAPTURE_ON_FAILED [Integer]  = 1 
		>VSA_TRIGGER_TYPE [Integer]  = 6 
		>BURN_MAX_ERROR_FOR_AB_CALC [Double]  = 0.80 
		>CAL_VOLT_LIMT_MAX [Double]  = 490.00 
		>CAL_VOLT_LIMT_MIN [Double]  = 5.00 
		>RX_CAL_AUX_ADC_RES [Double]  = 10.00 
		>RX_CAL_A_HIGH_MAX [Double]  = 2.20 
		>RX_CAL_A_HIGH_MIN [Double]  = 1.80 
		>RX_CAL_A_LOW_MAX [Double]  = 2.40 
		>RX_CAL_A_LOW_MIN [Double]  = 1.70 
		>RX_CAL_A_MID_MAX [Double]  = 2.30 
		>RX_CAL_A_MID_MIN [Double]  = 1.60 
		>RX_CAL_B_HIGH_MAX [Double]  = 52.00 
		>RX_CAL_B_HIGH_MIN [Double]  = 44.00 
		>RX_CAL_B_LOW_MAX [Double]  = 75.00 
		>RX_CAL_B_LOW_MIN [Double]  = 62.00 
		>RX_CAL_B_MID_MAX [Double]  = 68.00 
		>RX_CAL_B_MID_MIN [Double]  = 56.00 
		>RX_CAL_CALC_GAIN_TOLERANCE_FOR_MID_LNAGAIN_CAL [Double]  = 1.00 
		>RX_CAL_CW_OFFSET_FOR_MID_LNAGAIN_CAL [Double]  = 1.25 
		>RX_CAL_GAIN_STEP_POWER_REF [Double]  = -40.00 
		>RX_CAL_IOFFSET_INIT_0 [Double]  = 15.00 
		>RX_CAL_IOFFSET_INIT_1 [Double]  = 15.00 
		>RX_CAL_IOFFSET_INIT_2 [Double]  = 15.00 
		>RX_CAL_IOFFS_STEP [Double]  = 0.0215 
		>RX_CAL_LNA_GAIN_STEP_ACCURACY_MAX_1 [Double]  = 8.00 
		>RX_CAL_LNA_GAIN_STEP_ACCURACY_MAX_2 [Double]  = 12.00 
		>RX_CAL_LNA_GAIN_STEP_ACCURACY_MAX_3 [Double]  = 8.00 
		>RX_CAL_LNA_GAIN_STEP_ACCURACY_MAX_4 [Double]  = 8.00 
		>RX_CAL_LNA_GAIN_STEP_ACCURACY_MAX_5 [Double]  = 27.00 
		>RX_CAL_LNA_GAIN_STEP_ACCURACY_MAX_6 [Double]  = 38.00 
		>RX_CAL_LNA_GAIN_STEP_ACCURACY_MIN_1 [Double]  = 4.00 
		>RX_CAL_LNA_GAIN_STEP_ACCURACY_MIN_2 [Double]  = 4.00 
		>RX_CAL_LNA_GAIN_STEP_ACCURACY_MIN_3 [Double]  = 4.00 
		>RX_CAL_LNA_GAIN_STEP_ACCURACY_MIN_4 [Double]  = 4.00 
		>RX_CAL_LNA_GAIN_STEP_ACCURACY_MIN_5 [Double]  = 23.00 
		>RX_CAL_LNA_GAIN_STEP_ACCURACY_MIN_6 [Double]  = 25.00 
		>RX_CAL_MARGINHIGH_0 [Double]  = 1.94 
		>RX_CAL_MARGINHIGH_1 [Double]  = 1.00 
		>RX_CAL_MARGINHIGH_2 [Double]  = 1.00 
		>RX_CAL_MID_LNAGAIN_DEC_MAX [Double]  = 15.00 
		>RX_CAL_MID_LNAGAIN_DEC_MIN [Double]  = 0.00 
		>RX_CAL_POWER_MAX_0 [Double]  = -6.00 
		>RX_CAL_POWER_MAX_1 [Double]  = 0.00 
		>RX_CAL_POWER_MAX_2 [Double]  = 0.00 
		>RX_CAL_PRXIN_FOR_MID_LNAGAIN_CAL [Double]  = -45.00 
		>RX_CAL_S2DGAIN_INIT_0 [Double]  = 0 
		>RX_CAL_S2DGAIN_INIT_1 [Double]  = 0 
		>RX_CAL_S2DGAIN_INIT_2 [Double]  = -10.00 
		>RX_CAL_S2D_GAIN_HIGH_REG_MAX [Double]  = -2.00 
		>RX_CAL_S2D_GAIN_HIGH_REG_MIN [Double]  = -10.00 
		>RX_CAL_S2D_GAIN_LOW_REG_MAX [Double]  = 16.00 
		>RX_CAL_S2D_GAIN_LOW_REG_MIN [Double]  = 10.00 
		>RX_CAL_S2D_GAIN_MID_REG_MAX [Double]  = 10.00 
		>RX_CAL_S2D_GAIN_MID_REG_MIN [Double]  = 4.00 
		>RX_CAL_S2D_OFFSET_HIGH_REG_MAX [Double]  = 30.00 
		>RX_CAL_S2D_OFFSET_HIGH_REG_MIN [Double]  = 18.00 
		>RX_CAL_S2D_OFFSET_LOW_REG_MAX [Double]  = 14.00 
		>RX_CAL_S2D_OFFSET_LOW_REG_MIN [Double]  = 6.00 
		>RX_CAL_S2D_OFFSET_MID_REG_MAX [Double]  = 16.00 
		>RX_CAL_S2D_OFFSET_MID_REG_MIN [Double]  = 6.00 
		>RX_CAL_TARGET_FOR_MID_LNAGAIN_CAL [Double]  = 38.00 
		>TX_CALIBRATION_MIN_POWER_PER_INDEX [Double]  = 0.25 
		>VSA_AMPLITUDE_TOLERANCE_DB [Double]  = 6.00 
		>VSA_PRE_TRIGGER_TIME_US [Double]  = 3.00 
		>VSA_TRIGGER_LEVEL_DB [Double]  = -25.00 
		>VSG_MAX_POWER_11AC [Double]  = -5.00 
		>VSG_MAX_POWER_11AX [Double]  = -5.00 
		>VSG_MAX_POWER_11B [Double]  = 0.00 
		>VSG_MAX_POWER_11G [Double]  = -5.00 
		>VSG_MAX_POWER_11N [Double]  = -5.00 
		>CONTROL_MASK_TX [String]  = 0xFFFF 
		>PER_WAVEFORM_DESTINATION_MAC [String]  = 010000C0FFEE 
		>PER_WAVEFORM_PREFIX_11AC [String]  =  
		>PER_WAVEFORM_PREFIX_11AG [String]  =  
		>PER_WAVEFORM_PREFIX_11B [String]  =  
		>PER_WAVEFORM_PREFIX_11N [String]  =  
		>RX_CAL_FLATNESS_FREQ [String]  = 5180,5320,5540,5700,5785 
		>RX_CAL_SUB_BAND_FREQ [String]  = 5180,5210,5290,5530,5610,5690,5775 
		#Return Values:
		<ERROR_MESSAGE [String]  = <,>
	GLOBAL_SETTINGS ALWAYS_RUN
		#:run_mode = ALWAYS_RUN
		#Input Parameters:
		>AUTO_READING_LIMIT [Integer]  = 1 
		>DINAMIC_CAPTURE_TIME [Integer]  = 1 
		>DUT_RX_SETTLE_TIME_MS [Integer]  = 0 
		>DUT_SET_LIMIT_TX_SETTLE_TIME_MS [Integer]  = 50 
		>DUT_SLEEP_AFTER_SET_CHANNEL [Integer]  = 0 
		>DUT_TX_SETTLE_TIME_MS [Integer]  = 50 
		>MEAS_CDD_ENABLE [Integer]  = 0 
		>MEAS_CDD_VALUE [Integer]  = 0 
		>MEAS_EVM_AVERAGE [Integer]  = 3 
		>MEAS_PM_AVERAGE [Integer]  = 3 
		>MEAS_PRINT_RESUALT [Integer]  = 0 
		>PACKET_FORMAT_AUTO_DETECTION [Integer]  = 0 
		>RELATIVE_LIMIT [Integer]  = 1 
		>RETRY_TEST_ITEM [Integer]  = 0 
		>SERIAL_FORMAT [Integer]  = 0 
		>SERIAL_LOG_FILE [Integer]  = 0 
		>TX_CALIBRATION_FIRST_INDEX_FOR_EVM_MEASURE [Integer]  = 0 
		>TX_CALIBRATION_LAST_REG_MIN_INDEXES [Integer]  = 4 
		>TX_CALIBRATION_MEAS_PACKETS_PER_INDEX [Integer]  = 1 
		>TX_CALIBRATION_REGION_1_STEP [Integer]  = 2 
		>TX_CALIBRATION_REGION_2_STEP [Integer]  = 2 
		>TX_CALIBRATION_REGION_3_STEP [Integer]  = 2 
		>TX_CALIBRATION_STOP_ON_EVM_OR_POWER [Integer]  = 0 
		>TX_CALIBRATION_STOP_ON_SATURATION [Integer]  = 1 
		>VDUT_TIMEOUT_MS [Integer]  = 0 
		>MaxPower [Double]  = 14.50 
		>MinEVM [Double]  = -25.00 
		>EEPROM_INIT_PATH [String]  = ./EEPROM_INIT_FILES 
		>INDEXES_FOR_CALIBRATION [String]  = 26,28,30,32,34,36,38,40,42,44,46,48,50,52,54,56,58,60,62 
		>LOG_PATH [String]  = ./ 
		>PER_WAVEFORM_PATH [String]  = ./mod 
		>VSA_PORT_CHAIN_MAP [String]  = 0,0,0,0 
		>VSG_PORT_CHAIN_MAP [String]  = 0,0,0,0 
		#Return Values:
		<ERROR_MESSAGE [String]  = <,>
	LOAD_PATH_LOSS_TABLE ALWAYS_RUN
		#:run_mode = ALWAYS_RUN
		#Input Parameters:
		>RX_PATH_LOSS_FILE [String]  = path_loss.csv 
		>TX_PATH_LOSS_FILE [String]  = path_loss.csv 
		#Return Values:
		<ERROR_MESSAGE [String]  = <,>
	INSERT_DUT ALWAYS_RUN
		#:run_mode = ALWAYS_RUN
		#Input Parameters:
		>BOARD_TYPE [Integer]  = 0 
		>DUT_PRINT_LEVEL [Integer]  = 0 
		>Default_WLAN_Index [Integer]  = 2 
		>FLUSH_NV_MEMORY_TYPE [Integer]  = 0 
		>GEN5_OR_GEN6 [Integer]  = 1 
		>LOAD_NV_MEMORY_TYPE [Integer]  = 2 
		>NLOG [Integer]  = 0 
		>TX_CALIBRATION_REGION_1 [Integer]  = 62 
		>TX_CALIBRATION_REGION_2 [Integer]  = 62 
		>TX_CALIBRATION_REGION_3 [Integer]  = 62 
		>TX_HW_ANT_MASK [Integer]  = 15 
		>CONNECTION_IP [String]  = 192.168.0.1 
		#Return Values:
		<NLOG [Integer]  = <,>
		<REGION_1 [Integer]  = <,>
		<REGION_2 [Integer]  = <,>
		<REGION_3 [Integer]  = <,>
		<RX_CAL_NUM_OF_LNA_GAINS [Integer]  = <,>
		<DUT_VERSION [String]  = <,>
		<ERROR_MESSAGE [String]  = <,>
		<VDUT_VERSION [String]  = <,>
	INPUT_MAC_ADDRESS ALWAYS_SKIP
		#:run_mode = ALWAYS_SKIP
		#Input Parameters:
		>BARCODE_MODE [Integer]  = 0 
		>INPUT_MAC_ADDRESS_METHODE [Integer]  = 1 
		>INPUT_SERIAL_ADDRESS_METHODE [Integer]  = 1 
		>MAC_ADDRESS [String]  = AC9A96F1BB21 
		>SERIAL_NUMBER [String]  = 61008 
		#Return Values:
		<MAC_ADDRESS [String]  = <,>
		<SERIAL_NUMBER [String]  = <,>
	TX_XTAL_CALIBRATION ALWAYS_SKIP
		#:run_mode = ALWAYS_SKIP
		#Input Parameters:
		>BSS_FREQ_MHZ_PRIMARY [Integer]  = 2442 
		>CW_AMPLITUDE [Integer]  = 10 
		>MIN_XTAL_ACCURACY [Integer]  = -999 
		>NUM_STREAM_11AC [Integer]  = 1 
		>TPC_XTAL_CAL [Integer]  = 40 
		>TX1 [Integer]  = 1 
		>TX2 [Integer]  = 0 
		>TX3 [Integer]  = 0 
		>TX4 [Integer]  = 0 
		>XTAL_ACCURACY [Integer]  = 5 
		>XTAL_BIAS [Integer]  = 0 
		>XTAL_CAL_CW [Integer]  = 1 
		>XTAL_MAX_ITRATION [Integer]  = 20 
		>CABLE_LOSS_DB_1 [Double]  = 0.00 
		>CABLE_LOSS_DB_2 [Double]  = 0.00 
		>CABLE_LOSS_DB_3 [Double]  = 0.00 
		>CABLE_LOSS_DB_4 [Double]  = 0.00 
		>SAMPLING_TIME_US [Double]  = 0.00 
		>XTAL_MAX_LIMIT [Double]  = 200 
		>XTAL_MIN_LIMIT [Double]  = 50 
		>BSS_BANDWIDTH [String]  = BW-20 
		>DATA_RATE [String]  = MCS7 
		>GUARD_INTERVAL [String]  = LONG 
		>PACKET_FORMAT [String]  = HE 
		>PREAMBLE [String]  = LONG 
		>STANDARD [String]  = 802.11ax 
		#Return Values:
		<FREQ_ERROR_AVG [Double]  = < -5, 2>
		<XTAL_DATA [Double]  = <,>
		<ERROR_MESSAGE [String]  = <,>
	TX_CALIBRATION ALWAYS_SKIP
		#:run_mode = ALWAYS_SKIP
		#Input Parameters:
		>BSS_FREQ_MHZ_PRIMARY [Integer]  = 2442 
		>CONST_MEASURE_EVM_ENABLE [Integer]  = 0 
		>NUM_STREAM_11AC [Integer]  = 1 
		>TX1 [Integer]  = 1 
		>TX2 [Integer]  = 1 
		>TX3 [Integer]  = 1 
		>TX4 [Integer]  = 1 
		>VECTOR_CAL_ENABLE [Integer]  = 0 
		>VECTOR_CAL_FIRST_CAPTURE_EVM_MEAS_ENABLE [Integer]  = 0 
		>VECTOR_CAL_GAP_BETWEEN_PACKETS [Integer]  = 100 
		>VECTOR_EVM_SMOOTHING [Integer]  = 0 
		>CABLE_LOSS_DB_1 [Double]  = 0.00 
		>CABLE_LOSS_DB_2 [Double]  = 0.00 
		>CABLE_LOSS_DB_3 [Double]  = 0.00 
		>CABLE_LOSS_DB_4 [Double]  = 0.00 
		>CONST_MAX_POWER_ANT1 [Double]  = 0.00 
		>CONST_MAX_POWER_ANT2 [Double]  = 0.00 
		>CONST_MAX_POWER_ANT3 [Double]  = 0.00 
		>CONST_MAX_POWER_ANT4 [Double]  = 0.00 
		>CONST_UEVM_POWER_ANT1 [Double]  = 0.00 
		>CONST_UEVM_POWER_ANT2 [Double]  = 0.00 
		>CONST_UEVM_POWER_ANT3 [Double]  = 0.00 
		>CONST_UEVM_POWER_ANT4 [Double]  = 0.00 
		>SAMPLING_TIME_US [Double]  = 0.00 
		>TX_CAL_TIMEOUT_MS [Double]  = 600000.00 
		>UEVM_TX1 [Double]  = -36.00 
		>UEVM_TX2 [Double]  = -36.00 
		>UEVM_TX3 [Double]  = -36.00 
		>UEVM_TX4 [Double]  = -36.00 
		>BSS_BANDWIDTH [String]  = BW-20 
		>DATA_RATE [String]  = MCS7 
		>GUARD_INTERVAL [String]  = LONG 
		>PACKET_FORMAT [String]  = HE 
		>PREAMBLE [String]  = SHORT 
		>STANDARD [String]  = 802.11ax 
		#Return Values:
		<TX1_MAX_POWER_INDEX [Integer]  = <,>
		<TX2_MAX_POWER_INDEX [Integer]  = <,>
		<TX3_MAX_POWER_INDEX [Integer]  = <,>
		<TX4_MAX_POWER_INDEX [Integer]  = <,>
		<CABLE_LOSS_DB_1 [Double]  = <,>
		<CABLE_LOSS_DB_2 [Double]  = <,>
		<CABLE_LOSS_DB_3 [Double]  = <,>
		<CABLE_LOSS_DB_4 [Double]  = <,>
		<TX1_MAX_POWER [Double]  = <,>
		<TX1_MAX_POWER_EVM [Double]  = <,>
		<TX1_ULTIMATE_EVM [Double]  = <,>
		<TX1_ULTIMATE_EVM_POWER [Double]  = <,>
		<TX2_MAX_POWER [Double]  = <,>
		<TX2_MAX_POWER_EVM [Double]  = <,>
		<TX2_ULTIMATE_EVM [Double]  = <,>
		<TX2_ULTIMATE_EVM_POWER [Double]  = <,>
		<TX3_MAX_POWER [Double]  = <,>
		<TX3_MAX_POWER_EVM [Double]  = <,>
		<TX3_ULTIMATE_EVM [Double]  = <,>
		<TX3_ULTIMATE_EVM_POWER [Double]  = <,>
		<TX4_MAX_POWER [Double]  = <,>
		<TX4_MAX_POWER_EVM [Double]  = <,>
		<TX4_ULTIMATE_EVM [Double]  = <,>
		<TX4_ULTIMATE_EVM_POWER [Double]  = <,>
		<ERROR_MESSAGE [String]  = <,>
	TX_CALIBRATION ALWAYS_SKIP
		#:run_mode = ALWAYS_SKIP
		#Input Parameters:
		>BSS_FREQ_MHZ_PRIMARY [Integer]  = 2442 
		>CONST_MEASURE_EVM_ENABLE [Integer]  = 0 
		>NUM_STREAM_11AC [Integer]  = 1 
		>TX1 [Integer]  = 1 
		>TX2 [Integer]  = 1 
		>TX3 [Integer]  = 1 
		>TX4 [Integer]  = 1 
		>VECTOR_CAL_ENABLE [Integer]  = 0 
		>VECTOR_CAL_FIRST_CAPTURE_EVM_MEAS_ENABLE [Integer]  = 0 
		>VECTOR_CAL_GAP_BETWEEN_PACKETS [Integer]  = 100 
		>VECTOR_EVM_SMOOTHING [Integer]  = 0 
		>CABLE_LOSS_DB_1 [Double]  = 0.00 
		>CABLE_LOSS_DB_2 [Double]  = 0.00 
		>CABLE_LOSS_DB_3 [Double]  = 0.00 
		>CABLE_LOSS_DB_4 [Double]  = 0.00 
		>CONST_MAX_POWER_ANT1 [Double]  = 0.00 
		>CONST_MAX_POWER_ANT2 [Double]  = 0.00 
		>CONST_MAX_POWER_ANT3 [Double]  = 0.00 
		>CONST_MAX_POWER_ANT4 [Double]  = 0.00 
		>CONST_UEVM_POWER_ANT1 [Double]  = 0.00 
		>CONST_UEVM_POWER_ANT2 [Double]  = 0.00 
		>CONST_UEVM_POWER_ANT3 [Double]  = 0.00 
		>CONST_UEVM_POWER_ANT4 [Double]  = 0.00 
		>SAMPLING_TIME_US [Double]  = 0.00 
		>TX_CAL_TIMEOUT_MS [Double]  = 600000.00 
		>UEVM_TX1 [Double]  = -36.00 
		>UEVM_TX2 [Double]  = -36.00 
		>UEVM_TX3 [Double]  = -36.00 
		>UEVM_TX4 [Double]  = -36.00 
		>BSS_BANDWIDTH [String]  = BW-40 
		>DATA_RATE [String]  = MCS7 
		>GUARD_INTERVAL [String]  = LONG 
		>PACKET_FORMAT [String]  = HE 
		>PREAMBLE [String]  = SHORT 
		>STANDARD [String]  = 802.11ax 
		#Return Values:
		<TX1_MAX_POWER_INDEX [Integer]  = <,>
		<TX2_MAX_POWER_INDEX [Integer]  = <,>
		<TX3_MAX_POWER_INDEX [Integer]  = <,>
		<TX4_MAX_POWER_INDEX [Integer]  = <,>
		<CABLE_LOSS_DB_1 [Double]  = <,>
		<CABLE_LOSS_DB_2 [Double]  = <,>
		<CABLE_LOSS_DB_3 [Double]  = <,>
		<CABLE_LOSS_DB_4 [Double]  = <,>
		<TX1_MAX_POWER [Double]  = <,>
		<TX1_MAX_POWER_EVM [Double]  = <,>
		<TX1_ULTIMATE_EVM [Double]  = <,>
		<TX1_ULTIMATE_EVM_POWER [Double]  = <,>
		<TX2_MAX_POWER [Double]  = <,>
		<TX2_MAX_POWER_EVM [Double]  = <,>
		<TX2_ULTIMATE_EVM [Double]  = <,>
		<TX2_ULTIMATE_EVM_POWER [Double]  = <,>
		<TX3_MAX_POWER [Double]  = <,>
		<TX3_MAX_POWER_EVM [Double]  = <,>
		<TX3_ULTIMATE_EVM [Double]  = <,>
		<TX3_ULTIMATE_EVM_POWER [Double]  = <,>
		<TX4_MAX_POWER [Double]  = <,>
		<TX4_MAX_POWER_EVM [Double]  = <,>
		<TX4_ULTIMATE_EVM [Double]  = <,>
		<TX4_ULTIMATE_EVM_POWER [Double]  = <,>
		<ERROR_MESSAGE [String]  = <,>
	TX_CALIBRATION ALWAYS_SKIP
		#:run_mode = ALWAYS_SKIP
		#Input Parameters:
		>BSS_FREQ_MHZ_PRIMARY [Integer]  = 2442 
		>CONST_MEASURE_EVM_ENABLE [Integer]  = 0 
		>NUM_STREAM_11AC [Integer]  = 1 
		>TX1 [Integer]  = 1 
		>TX2 [Integer]  = 1 
		>TX3 [Integer]  = 1 
		>TX4 [Integer]  = 1 
		>VECTOR_CAL_ENABLE [Integer]  = 0 
		>VECTOR_CAL_FIRST_CAPTURE_EVM_MEAS_ENABLE [Integer]  = 0 
		>VECTOR_CAL_GAP_BETWEEN_PACKETS [Integer]  = 100 
		>VECTOR_EVM_SMOOTHING [Integer]  = 0 
		>CABLE_LOSS_DB_1 [Double]  = 0.00 
		>CABLE_LOSS_DB_2 [Double]  = 0.00 
		>CABLE_LOSS_DB_3 [Double]  = 0.00 
		>CABLE_LOSS_DB_4 [Double]  = 0.00 
		>CONST_MAX_POWER_ANT1 [Double]  = 0.00 
		>CONST_MAX_POWER_ANT2 [Double]  = 0.00 
		>CONST_MAX_POWER_ANT3 [Double]  = 0.00 
		>CONST_MAX_POWER_ANT4 [Double]  = 0.00 
		>CONST_UEVM_POWER_ANT1 [Double]  = 0.00 
		>CONST_UEVM_POWER_ANT2 [Double]  = 0.00 
		>CONST_UEVM_POWER_ANT3 [Double]  = 0.00 
		>CONST_UEVM_POWER_ANT4 [Double]  = 0.00 
		>SAMPLING_TIME_US [Double]  = 0.00 
		>TX_CAL_TIMEOUT_MS [Double]  = 600000.00 
		>UEVM_TX1 [Double]  = -36.00 
		>UEVM_TX2 [Double]  = -36.00 
		>UEVM_TX3 [Double]  = -36.00 
		>UEVM_TX4 [Double]  = -36.00 
		>BSS_BANDWIDTH [String]  = BW-20 
		>DATA_RATE [String]  = CCK-11 
		>GUARD_INTERVAL [String]  = LONG 
		>PACKET_FORMAT [String]  = NON_HT 
		>PREAMBLE [String]  = SHORT 
		>STANDARD [String]  = 802.11b 
		#Return Values:
		<TX1_MAX_POWER_INDEX [Integer]  = <,>
		<TX2_MAX_POWER_INDEX [Integer]  = <,>
		<TX3_MAX_POWER_INDEX [Integer]  = <,>
		<TX4_MAX_POWER_INDEX [Integer]  = <,>
		<CABLE_LOSS_DB_1 [Double]  = <,>
		<CABLE_LOSS_DB_2 [Double]  = <,>
		<CABLE_LOSS_DB_3 [Double]  = <,>
		<CABLE_LOSS_DB_4 [Double]  = <,>
		<TX1_MAX_POWER [Double]  = <,>
		<TX1_MAX_POWER_EVM [Double]  = <,>
		<TX1_ULTIMATE_EVM [Double]  = <,>
		<TX1_ULTIMATE_EVM_POWER [Double]  = <,>
		<TX2_MAX_POWER [Double]  = <,>
		<TX2_MAX_POWER_EVM [Double]  = <,>
		<TX2_ULTIMATE_EVM [Double]  = <,>
		<TX2_ULTIMATE_EVM_POWER [Double]  = <,>
		<TX3_MAX_POWER [Double]  = <,>
		<TX3_MAX_POWER_EVM [Double]  = <,>
		<TX3_ULTIMATE_EVM [Double]  = <,>
		<TX3_ULTIMATE_EVM_POWER [Double]  = <,>
		<TX4_MAX_POWER [Double]  = <,>
		<TX4_MAX_POWER_EVM [Double]  = <,>
		<TX4_ULTIMATE_EVM [Double]  = <,>
		<TX4_ULTIMATE_EVM_POWER [Double]  = <,>
		<ERROR_MESSAGE [String]  = <,>
	RX_CALIBRATION ALWAYS_SKIP
		#:run_mode = ALWAYS_SKIP
		#Input Parameters:
		>BAND_END_FREQ [Integer]  = 2500 
		>BAND_START_FREQ [Integer]  = 2400 
		>CH_FREQ_MHZ [Integer]  = 2442 
		>Method [Integer]  = 0 
		>RX1 [Integer]  = 1 
		>RX2 [Integer]  = 1 
		>RX3 [Integer]  = 1 
		>RX4 [Integer]  = 1 
		>RX_CAL_AB_ENABLE [Integer]  = 1 
		>RX_CAL_FLATNESS_ENABLE [Integer]  = 0 
		>RX_CAL_GAIN_ACCURACY_ENABLE [Integer]  = 1 
		>RX_CAL_MID_GAIN_ENABLE [Integer]  = 1 
		>RX_CAL_S2D_ENABLE [Integer]  = 1 
		>RX_CAL_SUB_BAND_ENABLE [Integer]  = 0 
		>STOP_ON_ERROR_RX_CAL [Integer]  = 0 
		>CABLE_LOSS_DB_1 [Double]  = 0.00 
		>CABLE_LOSS_DB_2 [Double]  = 0.00 
		>CABLE_LOSS_DB_3 [Double]  = 0.00 
		>CABLE_LOSS_DB_4 [Double]  = 0.00 
		>RX_CAL_TIMEOUT_MS [Double]  = 600000.00 
		>SAMPLING_TIME_US [Double]  = 0.00 
		>BSS_BANDWIDTH [String]  = BW-40 
		>STANDARD [String]  = 802.11ax 
		#Return Values:
		<CABLE_LOSS_DB_1 [Double]  = <,>
		<CABLE_LOSS_DB_2 [Double]  = <,>
		<CABLE_LOSS_DB_3 [Double]  = <,>
		<CABLE_LOSS_DB_4 [Double]  = <,>
		<RSSI_ERROR_ANT1_REG1 [Double]  = <,>
		<RSSI_ERROR_ANT1_REG2 [Double]  = <,>
		<RSSI_ERROR_ANT1_REG3 [Double]  = <,>
		<RSSI_ERROR_ANT2_REG1 [Double]  = <,>
		<RSSI_ERROR_ANT2_REG2 [Double]  = <,>
		<RSSI_ERROR_ANT2_REG3 [Double]  = <,>
		<RSSI_ERROR_ANT3_REG1 [Double]  = <,>
		<RSSI_ERROR_ANT3_REG2 [Double]  = <,>
		<RSSI_ERROR_ANT3_REG3 [Double]  = <,>
		<RSSI_ERROR_ANT4_REG1 [Double]  = <,>
		<RSSI_ERROR_ANT4_REG2 [Double]  = <,>
		<RSSI_ERROR_ANT4_REG3 [Double]  = <,>
		<ERROR_MESSAGE [String]  = <,>
	BURN_CALIBRATION ALWAYS_SKIP
		#:run_mode = ALWAYS_SKIP
		#Input Parameters:
		#Return Values:
		<MIN_POWER_ANT1 [Double]  = <,>
		<MIN_POWER_ANT2 [Double]  = <,>
		<MIN_POWER_ANT3 [Double]  = <,>
		<MIN_POWER_ANT4 [Double]  = <,>
		<TX_ERROR_ANT1_REG1 [Double]  = <,>
		<TX_ERROR_ANT1_REG2 [Double]  = <,>
		<TX_ERROR_ANT1_REG3 [Double]  = <,>
		<TX_ERROR_ANT2_REG1 [Double]  = <,>
		<TX_ERROR_ANT2_REG2 [Double]  = <,>
		<TX_ERROR_ANT2_REG3 [Double]  = <,>
		<TX_ERROR_ANT3_REG1 [Double]  = <,>
		<TX_ERROR_ANT3_REG2 [Double]  = <,>
		<TX_ERROR_ANT3_REG3 [Double]  = <,>
		<TX_ERROR_ANT4_REG1 [Double]  = <,>
		<TX_ERROR_ANT4_REG2 [Double]  = <,>
		<TX_ERROR_ANT4_REG3 [Double]  = <,>
	FLUSH_MEMORY ALWAYS_SKIP
		#:run_mode = ALWAYS_SKIP
		#Input Parameters:
		>STORE_CALIBRATION_FILE_ENABLE [Integer]  = 1 
		>WRITE_REGULATION_LIMITS [Integer]  = 0 
		>DIR_OF_POWER_LIMITS_CSV [String]  = C:\Program Files (x86)\Intel\IQlite\6020\Bin_win\PowerLimit\powerLimits.csv 
		#Return Values:
		<ERROR_MESSAGE [String]  = <,>
	TX_VERIFY_EVM
		#Input Parameters:
		>BSS_FREQ_MHZ_PRIMARY [Integer]  = 2442 
		>BSS_FREQ_MHZ_SECONDARY [Integer]  = 0 
		>CH_FREQ_MHZ [Integer]  = 2442 
		>CH_FREQ_MHZ_PRIMARY_20MHz [Integer]  = 0 
		>NUM_STREAM_11AC [Integer]  = 1 
		>TX1 [Integer]  = 1 
		>TX2 [Integer]  = 1 
		>TX3 [Integer]  = 1 
		>TX4 [Integer]  = 1 
		>CABLE_LOSS_DB_1 [Double]  = 0.00 
		>CABLE_LOSS_DB_2 [Double]  = 0.00 
		>CABLE_LOSS_DB_3 [Double]  = 0.00 
		>CABLE_LOSS_DB_4 [Double]  = 0.00 
		>SAMPLING_TIME_US [Double]  = 0.00 
		>TX_POWER_DBM [Double]  = 20 
		>BSS_BANDWIDTH [String]  = BW-20 
		>CH_BANDWIDTH [String]  = CBW-20 
		>DATA_RATE [String]  = MCS11 
		>GUARD_INTERVAL [String]  = LONG 
		>PACKET_FORMAT [String]  = HE 
		>PREAMBLE [String]  = SHORT 
		>STANDARD [String]  = 802.11ax 
		#Return Values:
		<CH_FREQ_MHZ_PRIMARY_40MHz [Integer]  = <,>
		<CH_FREQ_MHZ_PRIMARY_80MHz [Integer]  = <,>
		<SPATIAL_STREAM [Integer]  = <,>
		<AMP_ERR_DB [Double]  = <,>
		<AMP_ERR_DB_1 [Double]  = <,>
		<AMP_ERR_DB_2 [Double]  = <,>
		<AMP_ERR_DB_3 [Double]  = <,>
		<AMP_ERR_DB_4 [Double]  = <,>
		<CABLE_LOSS_DB_1 [Double]  = <,>
		<CABLE_LOSS_DB_2 [Double]  = <,>
		<CABLE_LOSS_DB_3 [Double]  = <,>
		<CABLE_LOSS_DB_4 [Double]  = <,>
		<DATA_RATE [Double]  = <,>
		<EVM_AVG_1 [Double]  = <, -20>
		<EVM_AVG_2 [Double]  = <, -20>
		<EVM_AVG_3 [Double]  = <, -20>
		<EVM_AVG_4 [Double]  = <, -20>
		<EVM_AVG_DB [Double]  = <, -20>
		<EVM_AVG_PERCENT [Double]  = <,>
		<EVM_AVG_STREAM_PERCENT_1 [Double]  = <,>
		<EVM_AVG_STREAM_PERCENT_2 [Double]  = <,>
		<EVM_AVG_STREAM_PERCENT_3 [Double]  = <,>
		<EVM_AVG_STREAM_PERCENT_4 [Double]  = <,>
		<EVM_MAX_1 [Double]  = <,>
		<EVM_MAX_2 [Double]  = <,>
		<EVM_MAX_3 [Double]  = <,>
		<EVM_MAX_4 [Double]  = <,>
		<EVM_MAX_STREAM_PERCENT_1 [Double]  = <,>
		<EVM_MAX_STREAM_PERCENT_2 [Double]  = <,>
		<EVM_MAX_STREAM_PERCENT_3 [Double]  = <,>
		<EVM_MAX_STREAM_PERCENT_4 [Double]  = <,>
		<EVM_MIN_1 [Double]  = <,>
		<EVM_MIN_2 [Double]  = <,>
		<EVM_MIN_3 [Double]  = <,>
		<EVM_MIN_4 [Double]  = <,>
		<EVM_MIN_STREAM_PERCENT_1 [Double]  = <,>
		<EVM_MIN_STREAM_PERCENT_2 [Double]  = <,>
		<EVM_MIN_STREAM_PERCENT_3 [Double]  = <,>
		<EVM_MIN_STREAM_PERCENT_4 [Double]  = <,>
		<EVM_PK_DB [Double]  = <,>
		<EVM_PK_PERCENT [Double]  = <,>
		<FREQ_ERROR_AVG [Double]  = < -20, 20>
		<FREQ_ERROR_MAX [Double]  = <,>
		<FREQ_ERROR_MIN [Double]  = <,>
		<LO_LEAKAGE_DB [Double]  = <, -20>
		<LO_LEAKAGE_DB_1 [Double]  = <, -20>
		<LO_LEAKAGE_DB_2 [Double]  = <, -20>
		<LO_LEAKAGE_DB_3 [Double]  = <, -20>
		<LO_LEAKAGE_DB_4 [Double]  = <, -20>
		<PHASE_ERR [Double]  = <,>
		<PHASE_ERR_1 [Double]  = <,>
		<PHASE_ERR_2 [Double]  = <,>
		<PHASE_ERR_3 [Double]  = <,>
		<PHASE_ERR_4 [Double]  = <,>
		<PHASE_NOISE_RMS_ALL [Double]  = <,>
		<POWER_AVG_1 [Double]  = < 18.5, 21.5>
		<POWER_AVG_2 [Double]  = < 18.5, 21.5>
		<POWER_AVG_3 [Double]  = < 18.5, 21.5>
		<POWER_AVG_4 [Double]  = < 18.5, 21.5>
		<POWER_AVG_DBM [Double]  = < 18.5, 21.5>
		<POWER_MAX_1 [Double]  = <,>
		<POWER_MAX_2 [Double]  = <,>
		<POWER_MAX_3 [Double]  = <,>
		<POWER_MAX_4 [Double]  = <,>
		<POWER_MIN_1 [Double]  = <,>
		<POWER_MIN_2 [Double]  = <,>
		<POWER_MIN_3 [Double]  = <,>
		<POWER_MIN_4 [Double]  = <,>
		<SYMBOL_CLK_ERR [Double]  = <,>
		<TX_POWER_DBM [Double]  = <,>
		<ERROR_MESSAGE [String]  = <,>
	TX_VERIFY_EVM
		#Input Parameters:
		>BSS_FREQ_MHZ_PRIMARY [Integer]  = 2442 
		>BSS_FREQ_MHZ_SECONDARY [Integer]  = 0 
		>CH_FREQ_MHZ [Integer]  = 2442 
		>CH_FREQ_MHZ_PRIMARY_20MHz [Integer]  = 0 
		>NUM_STREAM_11AC [Integer]  = 1 
		>TX1 [Integer]  = 1 
		>TX2 [Integer]  = 1 
		>TX3 [Integer]  = 1 
		>TX4 [Integer]  = 1 
		>CABLE_LOSS_DB_1 [Double]  = 0.00 
		>CABLE_LOSS_DB_2 [Double]  = 0.00 
		>CABLE_LOSS_DB_3 [Double]  = 0.00 
		>CABLE_LOSS_DB_4 [Double]  = 0.00 
		>SAMPLING_TIME_US [Double]  = 0.00 
		>TX_POWER_DBM [Double]  = 20 
		>BSS_BANDWIDTH [String]  = BW-40 
		>CH_BANDWIDTH [String]  = CBW-40 
		>DATA_RATE [String]  = MCS11 
		>GUARD_INTERVAL [String]  = LONG 
		>PACKET_FORMAT [String]  = HE 
		>PREAMBLE [String]  = SHORT 
		>STANDARD [String]  = 802.11ax 
		#Return Values:
		<CH_FREQ_MHZ_PRIMARY_40MHz [Integer]  = <,>
		<CH_FREQ_MHZ_PRIMARY_80MHz [Integer]  = <,>
		<SPATIAL_STREAM [Integer]  = <,>
		<AMP_ERR_DB [Double]  = <,>
		<AMP_ERR_DB_1 [Double]  = <,>
		<AMP_ERR_DB_2 [Double]  = <,>
		<AMP_ERR_DB_3 [Double]  = <,>
		<AMP_ERR_DB_4 [Double]  = <,>
		<CABLE_LOSS_DB_1 [Double]  = <,>
		<CABLE_LOSS_DB_2 [Double]  = <,>
		<CABLE_LOSS_DB_3 [Double]  = <,>
		<CABLE_LOSS_DB_4 [Double]  = <,>
		<DATA_RATE [Double]  = <,>
		<EVM_AVG_1 [Double]  = <, -20>
		<EVM_AVG_2 [Double]  = <, -20>
		<EVM_AVG_3 [Double]  = <, -20>
		<EVM_AVG_4 [Double]  = <, -20>
		<EVM_AVG_DB [Double]  = <, -20>
		<EVM_AVG_PERCENT [Double]  = <,>
		<EVM_AVG_STREAM_PERCENT_1 [Double]  = <,>
		<EVM_AVG_STREAM_PERCENT_2 [Double]  = <,>
		<EVM_AVG_STREAM_PERCENT_3 [Double]  = <,>
		<EVM_AVG_STREAM_PERCENT_4 [Double]  = <,>
		<EVM_MAX_1 [Double]  = <,>
		<EVM_MAX_2 [Double]  = <,>
		<EVM_MAX_3 [Double]  = <,>
		<EVM_MAX_4 [Double]  = <,>
		<EVM_MAX_STREAM_PERCENT_1 [Double]  = <,>
		<EVM_MAX_STREAM_PERCENT_2 [Double]  = <,>
		<EVM_MAX_STREAM_PERCENT_3 [Double]  = <,>
		<EVM_MAX_STREAM_PERCENT_4 [Double]  = <,>
		<EVM_MIN_1 [Double]  = <,>
		<EVM_MIN_2 [Double]  = <,>
		<EVM_MIN_3 [Double]  = <,>
		<EVM_MIN_4 [Double]  = <,>
		<EVM_MIN_STREAM_PERCENT_1 [Double]  = <,>
		<EVM_MIN_STREAM_PERCENT_2 [Double]  = <,>
		<EVM_MIN_STREAM_PERCENT_3 [Double]  = <,>
		<EVM_MIN_STREAM_PERCENT_4 [Double]  = <,>
		<EVM_PK_DB [Double]  = <,>
		<EVM_PK_PERCENT [Double]  = <,>
		<FREQ_ERROR_AVG [Double]  = < -20, 20>
		<FREQ_ERROR_MAX [Double]  = <,>
		<FREQ_ERROR_MIN [Double]  = <,>
		<LO_LEAKAGE_DB [Double]  = <, -20>
		<LO_LEAKAGE_DB_1 [Double]  = <, -20>
		<LO_LEAKAGE_DB_2 [Double]  = <, -20>
		<LO_LEAKAGE_DB_3 [Double]  = <, -20>
		<LO_LEAKAGE_DB_4 [Double]  = <, -20>
		<PHASE_ERR [Double]  = <,>
		<PHASE_ERR_1 [Double]  = <,>
		<PHASE_ERR_2 [Double]  = <,>
		<PHASE_ERR_3 [Double]  = <,>
		<PHASE_ERR_4 [Double]  = <,>
		<PHASE_NOISE_RMS_ALL [Double]  = <,>
		<POWER_AVG_1 [Double]  = < 18.5, 21.5>
		<POWER_AVG_2 [Double]  = < 18.5, 21.5>
		<POWER_AVG_3 [Double]  = < 18.5, 21.5>
		<POWER_AVG_4 [Double]  = < 18.5, 21.5>
		<POWER_AVG_DBM [Double]  = < 18.5, 21.5>
		<POWER_MAX_1 [Double]  = <,>
		<POWER_MAX_2 [Double]  = <,>
		<POWER_MAX_3 [Double]  = <,>
		<POWER_MAX_4 [Double]  = <,>
		<POWER_MIN_1 [Double]  = <,>
		<POWER_MIN_2 [Double]  = <,>
		<POWER_MIN_3 [Double]  = <,>
		<POWER_MIN_4 [Double]  = <,>
		<SYMBOL_CLK_ERR [Double]  = <,>
		<TX_POWER_DBM [Double]  = <,>
		<ERROR_MESSAGE [String]  = <,>
	TX_VERIFY_EVM
		#Input Parameters:
		>BSS_FREQ_MHZ_PRIMARY [Integer]  = 2442 
		>BSS_FREQ_MHZ_SECONDARY [Integer]  = 0 
		>CH_FREQ_MHZ [Integer]  = 2442 
		>CH_FREQ_MHZ_PRIMARY_20MHz [Integer]  = 0 
		>NUM_STREAM_11AC [Integer]  = 1 
		>TX1 [Integer]  = 1 
		>TX2 [Integer]  = 1 
		>TX3 [Integer]  = 1 
		>TX4 [Integer]  = 1 
		>CABLE_LOSS_DB_1 [Double]  = 0.00 
		>CABLE_LOSS_DB_2 [Double]  = 0.00 
		>CABLE_LOSS_DB_3 [Double]  = 0.00 
		>CABLE_LOSS_DB_4 [Double]  = 0.00 
		>SAMPLING_TIME_US [Double]  = 0.00 
		>TX_POWER_DBM [Double]  = 20 
		>BSS_BANDWIDTH [String]  = BW-20 
		>CH_BANDWIDTH [String]  = CBW-20 
		>DATA_RATE [String]  = CCK-11 
		>GUARD_INTERVAL [String]  = LONG 
		>PACKET_FORMAT [String]  = NON_HT 
		>PREAMBLE [String]  = SHORT 
		>STANDARD [String]  = 802.11b 
		#Return Values:
		<CH_FREQ_MHZ_PRIMARY_40MHz [Integer]  = <,>
		<CH_FREQ_MHZ_PRIMARY_80MHz [Integer]  = <,>
		<SPATIAL_STREAM [Integer]  = <,>
		<AMP_ERR_DB [Double]  = <,>
		<AMP_ERR_DB_1 [Double]  = <,>
		<AMP_ERR_DB_2 [Double]  = <,>
		<AMP_ERR_DB_3 [Double]  = <,>
		<AMP_ERR_DB_4 [Double]  = <,>
		<CABLE_LOSS_DB_1 [Double]  = <,>
		<CABLE_LOSS_DB_2 [Double]  = <,>
		<CABLE_LOSS_DB_3 [Double]  = <,>
		<CABLE_LOSS_DB_4 [Double]  = <,>
		<DATA_RATE [Double]  = <,>
		<EVM_AVG_1 [Double]  = <, -20>
		<EVM_AVG_2 [Double]  = <, -20>
		<EVM_AVG_3 [Double]  = <, -20>
		<EVM_AVG_4 [Double]  = <, -20>
		<EVM_AVG_DB [Double]  = <, -20>
		<EVM_AVG_PERCENT [Double]  = <,>
		<EVM_AVG_STREAM_PERCENT_1 [Double]  = <,>
		<EVM_AVG_STREAM_PERCENT_2 [Double]  = <,>
		<EVM_AVG_STREAM_PERCENT_3 [Double]  = <,>
		<EVM_AVG_STREAM_PERCENT_4 [Double]  = <,>
		<EVM_MAX_1 [Double]  = <,>
		<EVM_MAX_2 [Double]  = <,>
		<EVM_MAX_3 [Double]  = <,>
		<EVM_MAX_4 [Double]  = <,>
		<EVM_MAX_STREAM_PERCENT_1 [Double]  = <,>
		<EVM_MAX_STREAM_PERCENT_2 [Double]  = <,>
		<EVM_MAX_STREAM_PERCENT_3 [Double]  = <,>
		<EVM_MAX_STREAM_PERCENT_4 [Double]  = <,>
		<EVM_MIN_1 [Double]  = <,>
		<EVM_MIN_2 [Double]  = <,>
		<EVM_MIN_3 [Double]  = <,>
		<EVM_MIN_4 [Double]  = <,>
		<EVM_MIN_STREAM_PERCENT_1 [Double]  = <,>
		<EVM_MIN_STREAM_PERCENT_2 [Double]  = <,>
		<EVM_MIN_STREAM_PERCENT_3 [Double]  = <,>
		<EVM_MIN_STREAM_PERCENT_4 [Double]  = <,>
		<EVM_PK_DB [Double]  = <,>
		<EVM_PK_PERCENT [Double]  = <,>
		<FREQ_ERROR_AVG [Double]  = < -20, 20>
		<FREQ_ERROR_MAX [Double]  = <,>
		<FREQ_ERROR_MIN [Double]  = <,>
		<LO_LEAKAGE_DB [Double]  = <, -20>
		<LO_LEAKAGE_DB_1 [Double]  = <, -20>
		<LO_LEAKAGE_DB_2 [Double]  = <, -20>
		<LO_LEAKAGE_DB_3 [Double]  = <, -20>
		<LO_LEAKAGE_DB_4 [Double]  = <, -20>
		<PHASE_ERR [Double]  = <,>
		<PHASE_ERR_1 [Double]  = <,>
		<PHASE_ERR_2 [Double]  = <,>
		<PHASE_ERR_3 [Double]  = <,>
		<PHASE_ERR_4 [Double]  = <,>
		<PHASE_NOISE_RMS_ALL [Double]  = <,>
		<POWER_AVG_1 [Double]  = < 18.5, 21.5>
		<POWER_AVG_2 [Double]  = < 18.5, 21.5>
		<POWER_AVG_3 [Double]  = < 18.5, 21.5>
		<POWER_AVG_4 [Double]  = < 18.5, 21.5>
		<POWER_AVG_DBM [Double]  = < 18.5, 21.5>
		<POWER_MAX_1 [Double]  = <,>
		<POWER_MAX_2 [Double]  = <,>
		<POWER_MAX_3 [Double]  = <,>
		<POWER_MAX_4 [Double]  = <,>
		<POWER_MIN_1 [Double]  = <,>
		<POWER_MIN_2 [Double]  = <,>
		<POWER_MIN_3 [Double]  = <,>
		<POWER_MIN_4 [Double]  = <,>
		<SYMBOL_CLK_ERR [Double]  = <,>
		<TX_POWER_DBM [Double]  = <,>
		<ERROR_MESSAGE [String]  = <,>
	RX_VERIFY_PER ALWAYS_SKIP
		#:run_mode = ALWAYS_SKIP
		#Input Parameters:
		>BSS_FREQ_MHZ_PRIMARY [Integer]  = 2442 
		>BSS_FREQ_MHZ_SECONDARY [Integer]  = 0 
		>CH_FREQ_MHZ [Integer]  = 2442 
		>CH_FREQ_MHZ_PRIMARY_20MHz [Integer]  = 0 
		>FRAME_COUNT [Integer]  = 0 
		>NUM_STREAM_11AC [Integer]  = 1 
		>RX1 [Integer]  = 1 
		>RX2 [Integer]  = 1 
		>RX3 [Integer]  = 1 
		>RX4 [Integer]  = 1 
		>CABLE_LOSS_DB_1 [Double]  = 0.00 
		>CABLE_LOSS_DB_2 [Double]  = 0.00 
		>CABLE_LOSS_DB_3 [Double]  = 0.00 
		>CABLE_LOSS_DB_4 [Double]  = 0.00 
		>RX_POWER_DBM [Double]  = -60.00 
		>BSS_BANDWIDTH [String]  = BW-20 
		>CH_BANDWIDTH [String]  = CBW-20 
		>DATA_RATE [String]  = MCS7 
		>GUARD_INTERVAL [String]  = LONG 
		>PACKET_FORMAT [String]  = HE 
		>PREAMBLE [String]  = SHORT 
		>STANDARD [String]  = 802.11ax 
		>WAVEFORM_NAME [String]  =  
		#Return Values:
		<CH_FREQ_MHZ_PRIMARY_40MHz [Integer]  = <,>
		<CH_FREQ_MHZ_PRIMARY_80MHz [Integer]  = <,>
		<GOOD_PACKETS [Integer]  = <,>
		<TOTAL_PACKETS [Integer]  = <,>
		<CABLE_LOSS_DB_1 [Double]  = <,>
		<CABLE_LOSS_DB_2 [Double]  = <,>
		<CABLE_LOSS_DB_3 [Double]  = <,>
		<CABLE_LOSS_DB_4 [Double]  = <,>
		<PER [Double]  = <,>
		<RSSI_1 [Double]  = <,>
		<RSSI_2 [Double]  = <,>
		<RSSI_3 [Double]  = <,>
		<RSSI_4 [Double]  = <,>
		<RX_POWER_LEVEL [Double]  = <,>
		<ERROR_MESSAGE [String]  = <,>
		<WAVEFORM_NAME [String]  = <,>
	RX_VERIFY_PER ALWAYS_SKIP
		#:run_mode = ALWAYS_SKIP
		#Input Parameters:
		>BSS_FREQ_MHZ_PRIMARY [Integer]  = 2442 
		>BSS_FREQ_MHZ_SECONDARY [Integer]  = 0 
		>CH_FREQ_MHZ [Integer]  = 2442 
		>CH_FREQ_MHZ_PRIMARY_20MHz [Integer]  = 0 
		>FRAME_COUNT [Integer]  = 0 
		>NUM_STREAM_11AC [Integer]  = 1 
		>RX1 [Integer]  = 1 
		>RX2 [Integer]  = 1 
		>RX3 [Integer]  = 1 
		>RX4 [Integer]  = 1 
		>CABLE_LOSS_DB_1 [Double]  = 0.00 
		>CABLE_LOSS_DB_2 [Double]  = 0.00 
		>CABLE_LOSS_DB_3 [Double]  = 0.00 
		>CABLE_LOSS_DB_4 [Double]  = 0.00 
		>RX_POWER_DBM [Double]  = -60.00 
		>BSS_BANDWIDTH [String]  = BW-40 
		>CH_BANDWIDTH [String]  = CBW-40 
		>DATA_RATE [String]  = MCS7 
		>GUARD_INTERVAL [String]  = LONG 
		>PACKET_FORMAT [String]  = HE 
		>PREAMBLE [String]  = SHORT 
		>STANDARD [String]  = 802.11ax 
		>WAVEFORM_NAME [String]  =  
		#Return Values:
		<CH_FREQ_MHZ_PRIMARY_40MHz [Integer]  = <,>
		<CH_FREQ_MHZ_PRIMARY_80MHz [Integer]  = <,>
		<GOOD_PACKETS [Integer]  = <,>
		<TOTAL_PACKETS [Integer]  = <,>
		<CABLE_LOSS_DB_1 [Double]  = <,>
		<CABLE_LOSS_DB_2 [Double]  = <,>
		<CABLE_LOSS_DB_3 [Double]  = <,>
		<CABLE_LOSS_DB_4 [Double]  = <,>
		<PER [Double]  = <,>
		<RSSI_1 [Double]  = <,>
		<RSSI_2 [Double]  = <,>
		<RSSI_3 [Double]  = <,>
		<RSSI_4 [Double]  = <,>
		<RX_POWER_LEVEL [Double]  = <,>
		<ERROR_MESSAGE [String]  = <,>
		<WAVEFORM_NAME [String]  = <,>
	REMOVE_DUT ALWAYS_RUN
		#:run_mode = ALWAYS_RUN
		#Input Parameters:
		#Return Values:
		<ERROR_MESSAGE [String]  = <,>
	DISCONNECT_IQ_TESTER ALWAYS_RUN
		#:run_mode = ALWAYS_RUN
		#Input Parameters:
		#Return Values:
		<ERROR_MESSAGE [String]  = <,>
